<svg width="64" height="64" xmlns="http://www.w3.org/2000/svg">
 <g>
  <title>Layer 1</title>
  <rect stroke="#000" fill="#b2b2b2" stroke-width="0" stroke-dasharray="null" stroke-opacity="null" opacity="undefined" x="16" y="16" width="36" height="10" id="svg_1"/>
  <ellipse stroke="#000" ry="14" rx="14" id="svg_5" cy="32" cx="16" opacity="undefined" stroke-opacity="null" stroke-dasharray="null" stroke-width="0" fill="#b2b2b2"/>
  <rect stroke="#000" fill="#b2b2b2" stroke-width="0" stroke-dasharray="null" stroke-opacity="null" opacity="undefined" x="16" y="38" width="36" height="10" id="svg_13"/>
  <ellipse stroke="#000" ry="10" rx="10" id="svg_10" cy="32" cx="16" opacity="undefined" stroke-opacity="null" stroke-dasharray="null" stroke-width="0" fill="#8ffc23"/>
  <rect stroke="#000" id="svg_12" height="4" width="21" y="19" x="28" opacity="undefined" stroke-opacity="null" stroke-dasharray="null" stroke-width="0" fill="#8ffc23"/>
  <rect stroke="#000" id="svg_15" height="4" width="21" y="41" x="28" opacity="undefined" stroke-opacity="null" stroke-dasharray="null" stroke-width="0" fill="#8ffc23"/>
 </g>

</svg>