<svg width="64" height="64" xmlns="http://www.w3.org/2000/svg">
 <g>
  <title>Layer 1</title>
  <rect stroke="#000" fill="#b2b2b2" stroke-width="0" stroke-dasharray="null" stroke-opacity="null" opacity="undefined" x="16.0625" y="27" width="36" height="10" id="svg_1"/>
  <ellipse stroke="#000" ry="14" rx="14" id="svg_5" cy="32" cx="16" opacity="undefined" stroke-opacity="null" stroke-dasharray="null" stroke-width="0" fill="#b2b2b2"/>
  <ellipse stroke="#000" ry="10" rx="10" id="svg_10" cy="32" cx="16" opacity="undefined" stroke-opacity="null" stroke-dasharray="null" stroke-width="0" fill="#ffe100"/>
  <rect fill="#b2b2b2" stroke-width="0" stroke-dasharray="null" stroke-opacity="null" opacity="undefined" x="42" y="22" width="16" height="20" id="svg_2" stroke="#000"/>
  <rect stroke="#000" id="svg_12" height="4" width="21" y="30" x="31" opacity="undefined" stroke-opacity="null" stroke-dasharray="null" stroke-width="0" fill="#ffe100"/>
  <rect stroke="#000" id="svg_3" height="14" width="10" y="25" x="45" opacity="undefined" stroke-opacity="null" stroke-dasharray="null" stroke-width="0" fill="#ffe100"/>
 </g>

</svg>